<?xml version="1.0" encoding="UTF-8"?>
<svg width="60px" height="60px" viewBox="0 0 60 60" version="1.1" xmlns="http://www.w3.org/2000/svg" xmlns:xlink="http://www.w3.org/1999/xlink">
    <!-- Generator: Sketch 41.2 (35397) - http://www.bohemiancoding.com/sketch -->
    <title>Group 13</title>
    <desc>Created with Sketch.</desc>
    <defs></defs>
    <g id="Guide" stroke="none" stroke-width="1" fill="none" fill-rule="evenodd">
        <g id="Timesheet_Guide&amp;Flow_26122016" transform="translate(-685.000000, -2795.000000)">
            <g id="Group-13" transform="translate(685.000000, 2795.000000)">
                <g id="plus-copy" fill="#E0E0E0">
                    <g id="Capa_1">
                        <ellipse id="Oval" cx="30" cy="30" rx="30" ry="30"></ellipse>
                    </g>
                </g>
                <g id="cancel" transform="translate(20.000000, 20.000000)" fill="#53565A">
                    <path d="M11.1332872,9.8116263 L19.2812457,1.66366782 C19.6462284,1.29868512 19.6462284,0.706989619 19.2812457,0.34200692 C18.916263,-0.0229757785 18.3245675,-0.0229757785 17.9595848,0.34200692 L9.8116263,8.4899654 L1.66366782,0.343252595 C1.29868512,-0.0217301038 0.706989619,-0.0217301038 0.34200692,0.343252595 C-0.0229757785,0.708235294 -0.0229757785,1.2999308 0.34200692,1.66491349 L8.4899654,9.81287197 L0.343252595,17.9595848 C-0.0217301038,18.3245675 -0.0217301038,18.916263 0.343252595,19.2812457 C0.526366782,19.4631142 0.764290657,19.5552941 1.00346021,19.5552941 C1.24262976,19.5552941 1.48179931,19.4643599 1.66366782,19.2812457 L9.8116263,11.1332872 L17.9595848,19.2812457 C18.142699,19.4631142 18.3806228,19.5552941 18.6197924,19.5552941 C18.8589619,19.5552941 19.0981315,19.4643599 19.28,19.2812457 C19.6449827,18.916263 19.6449827,18.3245675 19.28,17.9595848 L11.1332872,9.8116263 L11.1332872,9.8116263 Z" id="Shape"></path>
                </g>
            </g>
        </g>
    </g>
</svg>