<?xml version="1.0" encoding="UTF-8"?>
<svg width="20px" height="20px" viewBox="0 0 20 20" version="1.1" xmlns="http://www.w3.org/2000/svg" xmlns:xlink="http://www.w3.org/1999/xlink">
    <!-- Generator: sketchtool 41.2 (35397) - http://www.bohemiancoding.com/sketch -->
    <title>0FF763AE-4454-4DF7-99D1-646BCF3878C1</title>
    <desc>Created with sketchtool.</desc>
    <defs></defs>
    <g id="Guide" stroke="none" stroke-width="0" fill="none" fill-rule="evenodd">
        <g id="greenOval" transform="translate(-20.000000, -79.000000)" fill="#86BC25">
            <circle id="Oval-32" cx="30" cy="89" r="10" ></circle>
        </g>
    </g>
</svg>