<?xml version="1.0" encoding="UTF-8"?>
<svg width="55px" height="55px" viewBox="0 0 55 55" version="1.1" xmlns="http://www.w3.org/2000/svg" xmlns:xlink="http://www.w3.org/1999/xlink">
    <!-- Generator: Sketch 41.2 (35397) - http://www.bohemiancoding.com/sketch -->
    <title>group 3</title>
    <desc>Created with Sketch.</desc>
    <defs></defs>
    <g id="Guide" stroke="none" stroke-width="1" fill="none" fill-rule="evenodd">
        <g id="Timesheet_Guide&amp;Flow_26122016" transform="translate(-4121.000000, -855.000000)">
            <g id="Group-3" transform="translate(3823.000000, 353.000000)">
                <g id="Group-2">
                    <g id="Group-10" transform="translate(298.000000, 502.000000)">
                        <g id="plus-copy">
                            <g id="group-3">
                                <circle id="Oval" fill="#86BC25" cx="27.5" cy="27.5" r="27.5"></circle>
                                <path d="M39.2,27.2 L28.8,27.2 L28.8,16.8 C28.8,16.3581722 28.4418278,16 28,16 C27.5581722,16 27.2,16.3581722 27.2,16.8 L27.2,27.2 L16.8,27.2 C16.3581722,27.2 16,27.5581722 16,28 C16,28.4418278 16.3581722,28.8 16.8,28.8 L27.2,28.8 L27.2,39.2 C27.2,39.6418278 27.5581722,40 28,40 C28.4418278,40 28.8,39.6418278 28.8,39.2 L28.8,28.8 L39.2,28.8 C39.6418278,28.8 40,28.4418278 40,28 C40,27.5581722 39.6418278,27.2 39.2,27.2 L39.2,27.2 Z" id="Shape" fill="#FFFFFF"></path>
                            </g>
                        </g>
                    </g>
                </g>
            </g>
        </g>
    </g>
</svg>