<?xml version="1.0" encoding="UTF-8"?>
<svg width="55px" height="55px" viewBox="0 0 55 55" version="1.1" xmlns="http://www.w3.org/2000/svg" xmlns:xlink="http://www.w3.org/1999/xlink">
    <!-- Generator: Sketch 41.2 (35397) - http://www.bohemiancoding.com/sketch -->
    <title>group 2</title>
    <desc>Created with Sketch.</desc>
    <defs></defs>
    <g id="Guide" stroke="none" stroke-width="1" fill="none" fill-rule="evenodd">
        <g id="Timesheet_Guide&amp;Flow_26122016" transform="translate(-4121.000000, -785.000000)">
            <g id="Group-3" transform="translate(3823.000000, 353.000000)">
                <g id="Group-2">
                    <g id="Group-7" transform="translate(298.000000, 432.000000)">
                        <g id="plus-copy">
                            <g id="group-2">
                                <circle id="Oval" fill="#FFFFFF" cx="27.5" cy="27.5" r="27.5"></circle>
                                <path d="M34.8131228,39.099595 L28.0006713,35.3212565 L21.1882199,39.099595 C20.9165872,39.2503151 20.5800511,39.2301229 20.3276491,39.0455088 C20.0776509,38.8618563 19.9550556,38.5479162 20.0151513,38.2423896 L21.5319674,30.6628763 L16.2339283,25.3653179 C16.0151798,25.1465694 15.9430649,24.8215717 16.0464296,24.5309488 C16.1521981,24.2396047 16.4142154,24.0340774 16.7219055,24.0037891 L24.2579095,23.249708 L27.2699073,16.4749966 C27.3973102,16.185816 27.6833659,16 28.0006713,16 C28.3155729,16 28.6040324,16.185816 28.7314353,16.4749966 L31.7434331,23.249708 L39.2794371,24.0037891 C39.5871272,24.0340774 39.8491446,24.2396047 39.9525092,24.5309488 C40.0582777,24.8215717 39.983759,25.1465694 39.7650106,25.3653179 L34.4693752,30.6628763 L35.9837875,38.2423896 C36.0462871,38.5479162 35.9236918,38.8618563 35.6712897,39.0455088 C35.5318677,39.147912 35.3660034,39.1995943 35.2001392,39.1995943 C35.0679286,39.1995943 34.9333142,39.1666618 34.8131228,39.099595 Z" id="Fill-1513" fill="#86BC25"></path>
                            </g>
                        </g>
                    </g>
                </g>
            </g>
        </g>
    </g>
</svg>